<svg xmlns="http://www.w3.org/2000/svg" width="24" height="24" viewBox="0 0 24 24"
     fill="none"
     stroke="currentColor"
     stroke-width="2"
     stroke-linecap="round"
     stroke-linejoin="round"
     class="feather feather-maximize">
<!-- feather-icons maximize-2.png
- avec plus d'écartement au milieu 10/14 => 9/15
- flèches plus petites 15/9 => 17/7
-->
    <polyline points="17 3 21 3 21 7"></polyline>
    <polyline points="7 21 3 21 3 17"></polyline>
    <line x1="21" y1="3" x2="15" y2="9"></line>
    <line x1="3" y1="21" x2="9" y2="15"></line>
    <!-- idem pour l'autre diagonale -->
    <polyline points="3 7 3 3 7 3"></polyline>
    <polyline points="17 21 21 21 21 17"></polyline>
    <line x1="3" y1="3" x2="9" y2="9"></line>
    <line x1="15" y1="15" x2="21" y2="21"></line>
</svg>
